[{"Year": 1956,"Ceremony": 29,"Name": "La Strada ","Country": "Italy"},
{"Year": 1957,"Ceremony": 30,"Name": "The Nights of Cabiria ","Country": "Italy"},
{"Year": 1958,"Ceremony": 31,"Name": "My Uncle ","Country": "France"},
{"Year": 1959,"Ceremony": 32,"Name": "Black Orpheus ","Country": "France"},
{"Year": 1960,"Ceremony": 33,"Name": "The Virgin Spring ","Country": "Sweden"},
{"Year": 1961,"Ceremony": 34,"Name": "Through a Glass Darkly ","Country": "Sweden"},
{"Year": 1962,"Ceremony": 35,"Name": "Sundays and Cybele ","Country": "France"},
{"Year": 1963,"Ceremony": 36,"Name": "Federico Fellini's 8-1/2 ","Country": "Italy"},
{"Year": 1964,"Ceremony": 37,"Name": "Yesterday, Today and Tomorrow ","Country": "Italy"},
{"Year": 1965,"Ceremony": 38,"Name": "The Shop on Main Street ","Country": "Czechoslovakia"},
{"Year": 1966,"Ceremony": 39,"Name": "A Man and a Woman ","Country": "France"},
{"Year": 1967,"Ceremony": 40,"Name": "Closely Watched Trains ","Country": "Czechoslovakia"},
{"Year": 1968,"Ceremony": 41,"Name": "War and Peace ","Country": "Union of Soviet Socialist Republics"},
{"Year": 1969,"Ceremony": 42,"Name": "Z ","Country": "Algeria"},
{"Year": 1970,"Ceremony": 43,"Name": "Investigation of a Citizen above Suspicion ","Country": "Italy"},
{"Year": 1971,"Ceremony": 44,"Name": "The Garden of the Finzi Continis ","Country": "Italy"},
{"Year": 1972,"Ceremony": 45,"Name": "The Discreet Charm of the Bourgeoisie ","Country": "France"},
{"Year": 1973,"Ceremony": 46,"Name": "Day for Night ","Country": "France"},
{"Year": 1974,"Ceremony": 47,"Name": "Amarcord ","Country": "Italy"},
{"Year": 1975,"Ceremony": 48,"Name": "Dersu Uzala ","Country": "Union of Soviet Socialist Republics"},
{"Year": 1976,"Ceremony": 49,"Name": "Black and White in Color ","Country": "Ivory Coast"},
{"Year": 1977,"Ceremony": 50,"Name": "Madame Rosa ","Country": "France"},
{"Year": 1978,"Ceremony": 51,"Name": "Get Out Your Handkerchiefs ","Country": "France"},
{"Year": 1979,"Ceremony": 52,"Name": "The Tin Drum ","Country": "Federal Republic of Germany"},
{"Year": 1980,"Ceremony": 53,"Name": "Moscow Does Not Believe in Tears ","Country": "Union of Soviet Socialist Republics"},
{"Year": 1981,"Ceremony": 54,"Name": "Mephisto ","Country": "Hungary"},
{"Year": 1982,"Ceremony": 55,"Name": "Volver a Empezar ('To Begin Again') ","Country": "Spain"},
{"Year": 1983,"Ceremony": 56,"Name": "Fanny & Alexander ","Country": "Sweden"},
{"Year": 1984,"Ceremony": 57,"Name": "Dangerous Moves ","Country": "Switzerland"},
{"Year": 1985,"Ceremony": 58,"Name": "The Official Story ","Country": "Argentina"},
{"Year": 1986,"Ceremony": 59,"Name": "The Assault ","Country": "The Netherlands"},
{"Year": 1987,"Ceremony": 60,"Name": "Babette's Feast ","Country": "Denmark"},
{"Year": 1988,"Ceremony": 61,"Name": "Pelle the Conqueror ","Country": "Denmark"},
{"Year": 1989,"Ceremony": 62,"Name": "Cinema Paradiso ","Country": "Italy"},
{"Year": 1990,"Ceremony": 63,"Name": "Journey of Hope ","Country": "Switzerland"},
{"Year": 1991,"Ceremony": 64,"Name": "Mediterraneo ","Country": "Italy"},
{"Year": 1992,"Ceremony": 65,"Name": "Indochine ","Country": "France"},
{"Year": 1993,"Ceremony": 66,"Name": "Belle Epoque ","Country": "Spain"},
{"Year": 1994,"Ceremony": 67,"Name": "Burnt by the Sun ","Country": "Russia"},
{"Year": 1995,"Ceremony": 68,"Name": "Antonia's Line ","Country": "The Netherlands"},
{"Year": 1996,"Ceremony": 69,"Name": "Kolya ","Country": "Czech Republic"},
{"Year": 1997,"Ceremony": 70,"Name": "Character ","Country": "The Netherlands"},
{"Year": 1998,"Ceremony": 71,"Name": "Life Is Beautiful ","Country": "Italy"},
{"Year": 1999,"Ceremony": 72,"Name": "All about My Mother ","Country": "Spain"},
{"Year": 2000,"Ceremony": 73,"Name": "Crouching Tiger, Hidden Dragon ","Country": "Taiwan"},
{"Year": 2001,"Ceremony": 74,"Name": "No Man's Land ","Country": "Bosnia & Herzegovina"},
{"Year": 2002,"Ceremony": 75,"Name": "Nowhere in Africa ","Country": "Germany"},
{"Year": 2003,"Ceremony": 76,"Name": "The Barbarian Invasions ","Country": "Canada"},
{"Year": 2004,"Ceremony": 77,"Name": "The Sea Inside ","Country": "Spain"},
{"Year": 2005,"Ceremony": 78,"Name": "Tsotsi ","Country": "South Africa"},
{"Year": 2006,"Ceremony": 79,"Name": "The Lives of Others ","Country": "Germany"},
{"Year": 2007,"Ceremony": 80,"Name": "The Counterfeiters ","Country": "Austria"},
{"Year": 2008,"Ceremony": 81,"Name": "Departures ","Country": "Japan"},
{"Year": 2009,"Ceremony": 82,"Name": "The Secret in Their Eyes ","Country": "Argentina"},
{"Year": 2010,"Ceremony": 83,"Name": "In a Better World ","Country": "Denmark"},
{"Year": 2011,"Ceremony": 84,"Name": "A Separation ","Country": "Iran"},
{"Year": 2012,"Ceremony": 85,"Name": "Amour ","Country": "Austria"},
{"Year": 2013,"Ceremony": 86,"Name": "The Great Beauty ","Country": "Italy"},
{"Year": 2014,"Ceremony": 87,"Name": "Ida ","Country": "Poland"},
{"Year": 2015,"Ceremony": 88,"Name": "Son of Saul","Country": "Hungary"},
{"Year": 2016,"Ceremony": 89,"Name": "The Salesman","Country": "Iran"},
{"Year": 2017,"Ceremony": 90,"Name": "A Fantastic Woman","Country": "Chile"}]